ST563Project1
…
This is the same warning I got in my original evaluation of the datasets, “algoritm did not converge”. This may be due to collinearity between the myriad variables. We can evaluate correlation of the variables below.

#create data frame of numeric values without the factors for evaluation of correlation
numData <- data2 |>
  select(where(is.numeric))
fullCorr <- (cor(numData))
longCorr <- cor_gather(fullCorr)
#sort and filter correlation 
longCorr1 <- longCorr |>
  arrange(desc(cor)) |>
  filter(cor < 1 & cor > 0.7)
  
longCorr1

# A tibble: 140 × 3
   var1             var2               cor
   <chr>            <chr>            <dbl>
 1 curLiabtToLiab   curLiabLiab       1   
 2 curLiabToEq      curLiabEq         1   
 3 curLiabLiab      curLiabtToLiab    1   
 4 curLiabEq        curLiabToEq       1   
 5 grsPrftToSales   opGrsMargin       1.00
 6 opGrsMargin      grsPrftToSales    1.00
 7 nvpsC            nvpsA             1.00
 8 nvpsA            nvpsC             1.00
 9 realSlsGrsMargin opGrsMargin       1.00
10 opGrsMargin      realSlsGrsMargin  1.00
# ℹ 130 more rows
…
I believe collinearity is causing a problem with the original training dataset. I was unable to fit the general additive model with all variables, even using the smoothing splines as a regularization technique. Let’s check the correlation in the training dataset.

#create data frame of numeric values without the factors for evaluation of correlation
numDataTrain <- bankrupt_train |>
  select(where(is.numeric))
fullCorrTrain <- (cor(numDataTrain))
longCorrTrain <- cor_gather(fullCorrTrain)
#sort and filter correlation 
longCorrTrain <- longCorrTrain |>
  arrange(desc(cor)) |>
  filter(cor < 1 & cor > 0.7)
  
longCorrTrain

# A tibble: 146 × 3
   var1             var2               cor
   <chr>            <chr>            <dbl>
 1 grsPrftToSales   opGrsMargin       1.00
 2 opGrsMargin      grsPrftToSales    1.00
 3 nvpsC            nvpsA             1.00
 4 nvpsA            nvpsC             1.00
 5 aTaxNetInt       pTaxNetInt        1.00
 6 pTaxNetInt       aTaxNetInt        1.00
 7 realSlsGrsMargin opGrsMargin       1.00
 8 opGrsMargin      realSlsGrsMargin  1.00
 9 grsPrftToSales   realSlsGrsMargin  1.00
10 realSlsGrsMargin grsPrftToSales    1.00
# ℹ 136 more rows
…
